Lab 1 Solutions – STAT 313 / 513
…
When you click the Render button a document will be generated that includes both content as well as the output of any embedded R code chunks within the document. Rendering a document is similar to running the code within the document, as Quarto performs the same action (running each chunk of code) in order to render your final document.

Question 5: Click on the “Render” button to produce an HTML file (you may need to enable popups to see the rendered document). Do you see the above code chunk (load-packages) in the rendered HTML document? Why do you think this is the case?

Dr. T’s Solution

You don’t see the code or the output because the #| include: false option is telling Quarto not (false) to include the code or the output from that code chunk.

Including Code Output

You can include code output in your rendered document:

mpg

# A tibble: 234 × 11
   manufacturer model      displ  year   cyl trans drv     cty   hwy fl    class
   <chr>        <chr>      <dbl> <int> <int> <chr> <chr> <int> <int> <chr> <chr>
 1 audi         a4           1.8  1999     4 auto… f        18    29 p     comp…
 2 audi         a4           1.8  1999     4 manu… f        21    29 p     comp…
 3 audi         a4           2    2008     4 manu… f        20    31 p     comp…
 4 audi         a4           2    2008     4 auto… f        21    30 p     comp…
 5 audi         a4           2.8  1999     6 auto… f        16    26 p     comp…
 6 audi         a4           2.8  1999     6 manu… f        18    26 p     comp…
 7 audi         a4           3.1  2008     6 auto… f        18    27 p     comp…
 8 audi         a4 quattro   1.8  1999     4 manu… 4        18    26 p     comp…
 9 audi         a4 quattro   1.8  1999     4 auto… 4        16    25 p     comp…
10 audi         a4 quattro   2    2008     4 manu… 4        20    28 p     comp…
# ℹ 224 more rows
…
